Case study 3: Triangulating causal estimates with literature evidence
…
Literature results

If we explore the full table in lit_df_filter, we can see lots of links between the two traits, pinned on specific overlapping terms.

We can summarise the SemMedDB semantic type and number of overlapping terms:

lit_counts <- lit_df_filter %>%
  count(`st.type`, `st.name`) %>%
  arrange(`st.type`, desc(`n`))
lit_counts %>% print(n = 30)
#> # A tibble: 33 x 3
#>    st.type   st.name                                  n
#>    <list>    <chr>                                <int>
#>  1 <chr [2]> ethanol                                571
#>  2 <chr [2]> Oral anticoagulants                     24
#>  3 <chr [2]> Metoprolol                              20
#>  4 <chr [2]> morphine                                 7
#>  5 <chr [2]> Benzodiazepines                          4
#>  6 <chr [2]> propofol                                 4
#>  7 <chr [2]> Diazepam                                 2
#>  8 <chr [2]> Midazolam                                2
#>  9 <chr [2]> Thiopental                               2
#> 10 <chr [2]> Apomorphine                              1
#> 11 <chr [2]> Luteolin                                 1
#> 12 <chr [2]> Neostigmine                              1
#> 13 <chr [2]> gamma hydroxybutyrate                    1
#> 14 <chr [2]> Glycoproteins                            3
#> 15 <chr [2]> glutathione                              1
#> 16 <chr [3]> Cytochrome P450                          6
#> 17 <chr [3]> mitogen-activated protein kinase p38     4
#> 18 <chr [3]> AHSA1                                    2
#> 19 <chr [3]> AIMP2                                    2
#> 20 <chr [3]> CRK                                      2
#> 21 <chr [3]> GRAP2                                    2
#> 22 <chr [3]> MAPK1                                    2
#> 23 <chr [3]> MAPK14                                   2
#> 24 <chr [3]> POLDIP2                                  2
#> 25 <chr [3]> Protein Kinase C                         2
#> 26 <chr [1]> agonists                                31
#> 27 <chr [1]> Antidepressive Agents                   12
#> 28 <chr [1]> Anesthetics                              8
#> 29 <chr [2]> melatonin                               88
#> 30 <chr [2]> Medroxyprogesterone 17-Acetate           5
#> # … with 3 more rows
…
      node = `st1.name`, assoc_node = `st.name`,
      label = `s1.predicate`
    ) %>%
    distinct(),
  # s2 subject - s2 predicate -> s2 object
  lit_detail %>%
    select(
      node = `st.name`, assoc_node = `st2.name`,
      label = `s2.predicate`
    ) %>%
    distinct()
) %>%
  distinct()
edges
#> # A tibble: 40 x 3
#>    node                     assoc_node             label
#>    <chr>                    <chr>                  <chr>
#>  1 SLEEP DURATION           Corticosterone         <NA> 
#>  2 Sleep Apnea, Obstructive CORONARY HEART DISEASE <NA> 
#>  3 Phosphotransferases      CORONARY HEART DISEASE <NA> 
#>  4 JAK2                     CORONARY HEART DISEASE <NA> 
#>  5 Janus kinase 2           CORONARY HEART DISEASE <NA> 
#>  6 Insulin                  CORONARY HEART DISEASE <NA> 
#>  7 Adiponectin              CORONARY HEART DISEASE <NA> 
#>  8 Coronary heart disease   CORONARY HEART DISEASE <NA> 
#>  9 Proteome                 CORONARY HEART DISEASE <NA> 
#> 10 Endothelial dysfunction  CORONARY HEART DISEASE <NA> 
#> # … with 30 more rows
…
pub_df <- bind_rows(
  lit_detail %>%
    select(gwas_id = `gwas.id`, semmed_triple_id = `s1.id`) %>%
    distinct(),
  lit_detail %>%
    select(gwas_id = `assoc_gwas.id`, semmed_triple_id = `s2.id`) %>%
    distinct()
) %>%
  transpose() %>%
  map_df(function(x) get_literature(x$gwas_id, x$semmed_triple_id))
pub_df
#> # A tibble: 124 x 3
#>    triple.id                       triple.name                           lit.id 
#>    <chr>                           <chr>                                 <chr>  
#>  1 C0010124:NEG_INTERACTS_WITH:C0… Corticosterone NEG_INTERACTS_WITH Le… 200515…
#>  2 C0010124:NEG_INTERACTS_WITH:C0… Corticosterone NEG_INTERACTS_WITH Le… 154755…
#>  3 C0299583:TREATS:C0520679        Leptin|LEP TREATS Sleep Apnea, Obstr… 104496…
#>  4 C0299583:TREATS:C0520679        Leptin|LEP TREATS Sleep Apnea, Obstr… 104496…
#>  5 C0299583:STIMULATES:C0031727    Leptin STIMULATES Phosphotransferases 159272…
#>  6 C0299583:STIMULATES:3717        Leptin|LEP STIMULATES Janus kinase 2… 159272…
#>  7 C0299583:STIMULATES:C0169661    Leptin|LEP STIMULATES Janus kinase 2… 159272…
#>  8 C0299583:INTERACTS_WITH:C00216… Leptin INTERACTS_WITH Insulin         156480…
#>  9 C0299583:INTERACTS_WITH:C00216… Leptin INTERACTS_WITH Insulin         127240…
#> 10 C0299583:STIMULATES:C0389071    Leptin STIMULATES Adiponectin         158112…
#> # … with 114 more rows
…
