Getting started with EpiGraphDB in R
…
endpoint <- "/mr"

mr_df <- query_epigraphdb(
  route = endpoint,
  params = list(
    exposure_trait = trait1,
    pval_threshold = 5e-08
  ),
  mode = "table"
)
print(mr_df)
#> # A tibble: 2,282 x 10
#>    exposure.id  exposure.trait  outcome.id outcome.trait    mr.b   mr.se mr.pval
#>    <chr>        <chr>           <chr>      <chr>           <dbl>   <dbl>   <dbl>
#>  1 ieu-a-974    Body mass index ebi-a-GCS… Fibrinogen lev… 0.193 0.00224       0
#>  2 ebi-a-GCST0… Body mass index ukb-b-2303 Body mass inde… 0.595 0.0153        0
#>  3 ieu-a-785    Body mass index ieu-a-85   Extreme body m… 1.72  0.00163       0
#>  4 ieu-a-835    Body mass index ukb-b-180… Leg fat mass (… 0.608 0.0139        0
#>  5 ieu-a-835    Body mass index ukb-b-128… Arm fat percen… 0.526 0.0130        0
#>  6 ieu-a-835    Body mass index ieu-a-93   Overweight      1.67  0.0341        0
#>  7 ieu-a-835    Body mass index ieu-a-61   Waist circumfe… 0.824 0.0194        0
#>  8 ieu-a-835    Body mass index ieu-a-60   Waist circumfe… 0.820 0.0195        0
#>  9 ebi-a-GCST0… Body mass index ukb-b-201… Arm fat percen… 0.533 0.0104        0
#> 10 ieu-a-2      Body mass index ukb-b-4650 Comparative bo… 0.439 0.00989       0
#> # … with 2,272 more rows, and 3 more variables: mr.method <chr>,
#> #   mr.selection <chr>, mr.moescore <dbl>
…
trait2 <- "Waist circumference"

endpoint <- "/mr"

mr_df <- query_epigraphdb(
  route = endpoint,
  params = list(
    outcome_trait = trait2,
    pval_threshold = 5e-08
  ),
  mode = "table"
)
print(mr_df)
#> # A tibble: 2,607 x 10
#>    exposure.id exposure.trait  outcome.id outcome.trait     mr.b   mr.se mr.pval
#>    <chr>       <chr>           <chr>      <chr>            <dbl>   <dbl>   <dbl>
#>  1 ukb-b-15957 Types of trans… ieu-a-104  Waist circum…  0.591   7.59e-3       0
#>  2 ukb-b-13423 Breastfed as a… ieu-a-104  Waist circum…  0.601   1.26e-2       0
#>  3 ubm-a-130   IDP T1 FAST RO… ieu-a-104  Waist circum…  0.0899  1.25e-3       0
#>  4 prot-b-38   interleukin 1 … ieu-a-104  Waist circum… -0.00884 2.30e-4       0
#>  5 met-c-903   Phospholipids … ieu-a-104  Waist circum… -0.0428  2.97e-4       0
#>  6 ukb-b-19060 Hearing aid us… ieu-a-66   Waist circum…  0.845   1.29e-2       0
#>  7 ukb-a-344   Difficulty not… ieu-a-66   Waist circum…  0.102   4.80e-4       0
#>  8 ubm-a-11    IDP T1 FIRST l… ieu-a-66   Waist circum…  0.0468  2.60e-4       0
#>  9 prot-a-2356 Lysosomal Pro-… ieu-a-66   Waist circum…  0.0157  6.30e-5       0
#> 10 prot-a-1332 Hemojuvelin     ieu-a-66   Waist circum… -0.0196  2.56e-4       0
#> # … with 2,597 more rows, and 3 more variables: mr.method <chr>,
#> #   mr.selection <chr>, mr.moescore <dbl>
…
endpoint <- "/cypher"
params <- list(query = query)
results_subset <- query_epigraphdb(
  route = endpoint,
  params = params,
  method = "POST",
  mode = "table"
)
results_subset
#> # A tibble: 408 x 10
#>    exposure.trait  exposure.id outcome.trait  outcome.id  mr.b   mr.se mr.method
#>    <chr>           <chr>       <chr>          <chr>      <dbl>   <dbl> <chr>    
#>  1 Body mass index ieu-a-2     Comparative b… ukb-b-4650 0.439 0.00989 FE IVW   
#>  2 Body mass index ieu-a-2     Body mass ind… ukb-b-2303 0.674 0.0178  FE IVW   
#>  3 Body mass index ieu-a-2     Basal metabol… ukb-b-164… 0.449 0.0118  FE IVW   
#>  4 Body mass index ieu-a-2     Arm fat perce… ukb-a-282  0.528 0.0125  FE IVW   
#>  5 Body mass index ieu-a-2     Waist circumf… ukb-b-9405 0.645 0.0126  FE IVW   
#>  6 Body mass index ieu-a-2     Arm predicted… ukb-b-9093 0.398 0.00841 FE IVW   
#>  7 Body mass index ieu-a-2     Body mass ind… ieu-a-94   1.01  0.0269  FE IVW   
#>  8 Body mass index ieu-a-2     Hip circumfer… ieu-a-48   0.828 0.0149  FE IVW   
#>  9 Body mass index ieu-a-2     Waist circumf… ieu-a-65   0.732 0.0200  FE IVW   
#> 10 Body mass index ieu-a-2     Hip circumfer… ukb-b-155… 0.652 0.0180  FE IVW   
#> # … with 398 more rows, and 3 more variables: mr.selection <chr>,
#> #   mr.pval <dbl>, mr.moescore <dbl>
…
