Meta functionalities of the EpiGraphDB platform
…
meta_rel_df %>%
  arrange(from_node, to_node) %>%
  mutate(count = format(count, big.mark = ","))
#> # A tibble: 41 x 4
#>    meta_rel                     count        from_node to_node   
#>    <chr>                        <chr>        <chr>     <chr>     
#>  1 MONDO_MAP_EFO                "     2,822" Disease   Efo       
#>  2 MONDO_MAP_UMLS               "     3,414" Disease   SemmedTerm
#>  3 OPENTARGETS_DRUG_TO_DISEASE  "     2,486" Drug      Disease   
#>  4 CPIC                         "       355" Drug      Gene      
#>  5 OPENTARGETS_DRUG_TO_TARGET   "     6,024" Drug      Gene      
#>  6 EFO_CHILD_OF                 "    43,154" Efo       Efo       
#>  7 PRECEDING_EVENT              "    10,418" Event     Event     
#>  8 XQTL_MULTI_SNP_MR            " 3,098,049" Gene      Gwas      
#>  9 XQTL_SINGLE_SNP_MR_GENE_GWAS " 8,703,863" Gene      Gwas      
#> 10 GENE_TO_LITERATURE           "       771" Gene      Literature
#> # â€¦ with 31 more rows
…
